<?xml version="1.0" encoding="UTF-8" standalone="no"?>
<svg xmlns:xlink="http://www.w3.org/1999/xlink" height="29.05px" width="46.15px" xmlns="http://www.w3.org/2000/svg">
  <g transform="matrix(1.0, 0.0, 0.0, 1.0, 23.1, 14.8)">
    <use height="0.0" id="fx" transform="matrix(1.0, 0.0, 0.0, 1.0, 0.1, 2.25)" width="0.0" xlink:href="#sprite0"/>
    <use height="29.0" id="instance_22" transform="matrix(-1.0, 0.0, 0.0, 1.0, -1.1, -14.75)" width="22.0" xlink:href="#sprite1"/>
    <use height="29.0" id="instance_23" transform="matrix(1.0, 0.0, 0.0, 1.0, 1.05, -14.8)" width="22.0" xlink:href="#sprite1"/>
    <use height="11.6" id="instance_24" transform="matrix(1.0, 0.0, 0.0, 1.0, -6.0, -0.8)" width="11.9" xlink:href="#sprite3"/>
    <use height="12.9" transform="matrix(1.0, 0.0, 0.0, 1.0, -6.6, -7.2)" width="16.6" xlink:href="#shape2"/>
  </g>
  <defs>
    <g id="sprite1" transform="matrix(1.0, 0.0, 0.0, 1.0, 0.6, 16.55)">
      <use height="35.15" id="a" transform="matrix(0.8798, 0.0, 0.0, 0.3047, -0.6159, -6.1099)" width="25.0" xlink:href="#sprite2"/>
    </g>
    <g id="sprite2" transform="matrix(1.0, 0.0, 0.0, 1.0, 0.7, 20.05)">
      <use height="27.25" transform="matrix(1.0, 0.0, 0.0, 1.0, 1.0, -20.05)" width="23.3" xlink:href="#shape0"/>
    </g>
    <g id="shape0" transform="matrix(1.0, 0.0, 0.0, 1.0, -1.0, 20.05)">
      <path d="M11.1 -5.45 L10.6 -5.2 10.85 -3.15 11.1 -5.45 M13.1 -7.35 L13.7 -7.4 13.45 -7.95 13.1 -7.35 M11.6 -6.5 L12.2 -7.3 11.6 -7.25 11.6 -6.5 M11.2 -7.1 L10.3 -6.4 10.5 -6.0 11.15 -6.3 11.2 -7.1 M11.3 -9.45 L12.1 -9.65 12.0 -10.1 11.3 -9.45 M16.6 -8.6 L16.55 -9.15 14.45 -8.3 14.1 -7.6 16.6 -8.6 M16.5 -10.0 L16.4 -11.15 14.45 -9.25 16.5 -10.0 M18.7 -12.35 L18.7 -9.65 19.85 -9.65 19.85 -12.35 18.7 -12.35 M18.35 -9.5 L18.15 -9.95 17.7 -10.15 17.25 -9.95 17.05 -9.5 17.25 -9.05 17.7 -8.85 Q17.95 -8.85 18.15 -9.05 L18.35 -9.5 M18.0 -10.4 L18.2 -11.1 18.0 -11.75 17.5 -12.05 Q17.2 -12.05 17.0 -11.75 L16.8 -11.1 17.0 -10.4 Q17.2 -10.15 17.5 -10.15 17.8 -10.15 18.0 -10.4 M5.65 -4.75 L6.8 -5.45 7.1 -6.25 5.65 -4.75 M17.3 -15.35 L17.15 -15.85 13.15 -12.05 17.3 -15.35 M16.2 -12.9 L17.65 -13.05 17.5 -14.55 13.35 -11.15 13.45 -10.4 16.2 -12.9 M17.55 -16.1 L17.7 -15.6 18.55 -16.2 17.55 -16.1 M11.9 -13.45 L11.8 -14.15 8.7 -10.45 11.9 -13.45 M12.45 -14.75 L12.65 -14.2 16.15 -17.1 12.45 -14.75 M16.85 -19.3 L17.15 -18.95 17.05 -18.45 16.5 -17.95 16.8 -17.55 20.25 -20.05 17.25 -16.8 20.4 -18.55 18.45 -16.3 19.35 -16.7 19.4 -16.25 17.9 -14.8 18.1 -13.25 18.7 -13.55 18.7 -14.55 19.5 -13.65 21.05 -14.0 20.25 -12.9 20.45 -11.15 24.05 -11.8 20.5 -10.9 20.7 -10.15 23.8 -11.15 24.3 -11.0 20.9 -9.55 20.5 -4.9 20.55 -9.05 18.9 -8.65 17.7 -4.95 18.3 -8.4 17.2 -8.0 17.7 -4.95 16.9 0.0 16.75 -7.45 14.25 -6.6 14.5 -4.6 13.95 -6.7 13.35 -6.45 13.25 0.4 13.1 -4.25 12.7 -3.3 12.7 -6.2 11.85 -5.75 8.4 6.15 9.3 -4.25 8.5 -4.2 6.6 7.2 7.4 -3.45 6.9 -3.45 6.65 -1.8 6.15 -1.6 5.6 4.65 5.05 -2.0 4.3 0.7 3.9 -1.25 3.4 -1.65 2.8 -1.45 3.05 0.9 2.6 0.35 2.45 1.05 2.1 -1.35 1.15 -1.3 2.05 -1.85 1.0 -2.0 2.05 -2.15 1.45 -3.6 2.15 -4.55 2.15 -5.2 2.4 -4.85 7.5 -10.9 7.65 -11.05 7.85 -11.1 8.05 -11.05 11.6 -15.15 10.8 -17.8 12.0 -15.85 15.55 -18.2 14.9 -18.85 14.85 -19.4 15.95 -18.5 16.85 -19.3" fill="#ffffff" fill-opacity="0.8" fill-rule="evenodd" stroke="none"/>
    </g>
    <g id="sprite3" transform="matrix(1.0, 0.0, 0.0, 1.0, 5.95, 3.5)">
      <use height="8.0" transform="matrix(1.0, 0.0, 0.0, 1.0, -5.45, -3.5)" width="10.8" xlink:href="#shape1"/>
    </g>
    <g id="shape1" transform="matrix(1.0, 0.0, 0.0, 1.0, 5.45, 3.5)">
      <path d="M3.9 -2.9 L4.35 -2.05 2.9 -1.7 3.1 -2.4 2.35 -3.5 3.9 -2.9 M4.1 0.65 L3.35 -0.45 4.9 0.15 5.35 0.95 4.1 1.5 4.1 0.65 M3.25 2.7 L3.65 3.5 2.4 4.5 2.4 3.2 1.65 2.1 3.2 2.7 3.25 2.7 M-3.0 -1.7 L-4.45 -2.05 -4.0 -2.9 -2.45 -3.5 -3.2 -2.4 -3.0 -1.7 M-3.85 1.8 L-5.45 0.95 -5.0 0.15 -3.45 -0.45 -4.2 0.65 -3.8 1.7 -3.85 1.8 M-2.5 3.2 L-2.5 4.35 -3.75 3.5 -3.3 2.7 -1.75 2.1 -2.5 3.2" fill="#000000" fill-rule="evenodd" stroke="none"/>
    </g>
    <g id="shape2" transform="matrix(1.0, 0.0, 0.0, 1.0, 6.6, 7.2)">
      <path d="M4.25 -4.95 Q2.55 -6.7 0.1 -6.7 -2.35 -6.7 -4.1 -4.95 -5.8 -3.2 -5.8 -0.75 -5.8 1.75 -4.1 3.45 -2.35 5.2 0.1 5.2 2.55 5.2 4.25 3.45 6.0 1.75 6.05 -0.75 6.0 -3.2 4.25 -4.95 M0.1 -7.2 Q2.75 -7.2 4.6 -5.3 6.5 -3.4 6.55 -0.75 6.5 1.95 4.6 3.8 2.75 5.7 0.1 5.7 -2.55 5.7 -4.45 3.8 -6.3 1.95 -6.3 -0.75 -6.3 -3.4 -4.45 -5.3 -2.55 -7.2 0.1 -7.2" fill="#165016" fill-rule="evenodd" stroke="none"/>
      <path d="M4.25 -4.95 Q6.0 -3.2 6.05 -0.75 6.0 1.75 4.25 3.45 2.55 5.2 0.1 5.2 -2.35 5.2 -4.1 3.45 -5.8 1.75 -5.8 -0.75 -5.8 -3.2 -4.1 -4.95 -2.35 -6.7 0.1 -6.7 2.55 -6.7 4.25 -4.95" fill="#2c9d2b" fill-rule="evenodd" stroke="none"/>
      <path d="M1.65 1.3 L1.7 1.35 Q3.1 2.75 5.0 2.75 6.85 2.75 8.15 1.35 9.5 0.05 9.5 -1.85 9.5 -3.75 8.15 -5.15 6.85 -6.45 5.0 -6.4 3.1 -6.45 1.7 -5.15 L1.65 -5.1 1.6 -5.15 Q0.3 -6.45 -1.55 -6.4 -3.45 -6.45 -4.85 -5.15 -6.1 -3.75 -6.1 -1.85 -6.1 0.05 -4.85 1.35 -3.45 2.75 -1.55 2.75 0.3 2.75 1.6 1.35 L1.65 1.3 M10.0 -1.9 Q10.0 0.25 8.5 1.7 L8.5 1.65 Q7.1 3.2 5.0 3.2 3.1 3.2 1.65 1.95 0.3 3.2 -1.55 3.2 L-2.85 3.05 Q-4.15 2.7 -5.2 1.65 -6.6 0.25 -6.6 -1.9 -6.6 -4.0 -5.2 -5.55 L-5.15 -5.6 -3.75 -6.55 -3.75 -6.5 -2.5 -6.8 -0.9 -6.75 Q0.3 -6.75 1.65 -5.55 3.25 -6.8 4.5 -6.8 L5.8 -6.9 Q7.35 -6.7 8.5 -5.55 10.0 -4.0 10.0 -1.9 M1.95 1.65 L1.9 1.7 1.95 1.7 1.95 1.65" fill="#5a5a5a" fill-rule="evenodd" stroke="none"/>
      <path d="M1.65 1.3 L1.7 -1.8 Q1.85 -3.7 1.65 -5.1 L1.7 -5.15 Q3.1 -6.45 5.0 -6.4 6.85 -6.45 8.15 -5.15 9.5 -3.75 9.5 -1.85 9.5 0.05 8.15 1.35 6.85 2.75 5.0 2.75 3.1 2.75 1.7 1.35 L1.65 1.3" fill="url(#gradient0)" fill-rule="evenodd" stroke="none"/>
      <path d="M1.65 -5.1 Q1.85 -3.7 1.7 -1.8 L1.65 1.3 1.6 1.35 Q0.3 2.75 -1.55 2.75 -3.45 2.75 -4.85 1.35 -6.1 0.05 -6.1 -1.85 -6.1 -3.75 -4.85 -5.15 -3.45 -6.45 -1.55 -6.4 0.3 -6.45 1.6 -5.15 L1.65 -5.1" fill="url(#gradient1)" fill-rule="evenodd" stroke="none"/>
      <path d="M-0.25 -3.55 Q0.55 -3.55 1.1 -3.0 1.7 -2.35 1.75 -1.5 1.7 -0.7 1.1 -0.1 0.55 0.5 -0.25 0.5 -1.1 0.5 -1.7 -0.1 -2.25 -0.7 -2.25 -1.5 -2.25 -2.35 -1.7 -3.0 -1.1 -3.55 -0.25 -3.55" fill="#000000" fill-rule="evenodd" stroke="none"/>
      <path d="M5.05 -3.55 Q5.85 -3.55 6.4 -3.0 7.0 -2.35 7.05 -1.5 7.0 -0.7 6.4 -0.1 5.85 0.5 5.05 0.5 4.2 0.5 3.6 -0.1 3.05 -0.7 3.05 -1.5 3.05 -2.35 3.6 -3.0 4.2 -3.55 5.05 -3.55" fill="#000000" fill-rule="evenodd" stroke="none"/>
    </g>
    <radialGradient cx="0" cy="0" gradientTransform="matrix(0.0094, 0.0, 0.0, 0.0095, 3.2, -4.1)" gradientUnits="userSpaceOnUse" id="gradient0" r="819.2" spreadMethod="pad">
      <stop offset="0.3803921568627451" stop-color="#ffffff"/>
      <stop offset="0.6784313725490196" stop-color="#cccccc"/>
    </radialGradient>
    <radialGradient cx="0" cy="0" gradientTransform="matrix(0.0097, 0.0, 0.0, 0.0098, -3.7, -4.15)" gradientUnits="userSpaceOnUse" id="gradient1" r="819.2" spreadMethod="pad">
      <stop offset="0.3803921568627451" stop-color="#ffffff"/>
      <stop offset="0.6784313725490196" stop-color="#cccccc"/>
    </radialGradient>
  </defs>
</svg>
