<?xml version="1.0" encoding="UTF-8" standalone="no"?>
<svg xmlns:xlink="http://www.w3.org/1999/xlink" height="35.55px" width="39.3px" xmlns="http://www.w3.org/2000/svg">
  <g transform="matrix(1.0, 0.0, 0.0, 1.0, 19.3, 34.5)">
    <path d="M-1.75 -31.2 L1.05 -33.5 8.8 -27.35 6.25 -19.7 5.55 -20.8 7.25 -26.75 1.9 -30.35 4.6 -20.5 2.75 -19.55 0.3 -28.75 -0.75 -30.35 -2.0 -29.35 Q-2.2 -29.25 -2.35 -29.1 L-1.75 -31.2 M11.7 -24.2 L13.15 -22.8 11.55 -16.85 11.15 -19.35 11.25 -19.8 11.45 -23.0 11.7 -24.2 M13.5 -22.45 L19.0 -17.2 13.05 -11.75 14.95 -14.8 11.9 -14.15 11.2 -14.65 16.65 -17.0 13.5 -22.45 M9.8 -6.55 L14.35 -5.9 13.05 -3.15 11.95 -3.2 Q12.6 -4.35 12.25 -4.85 11.65 -5.85 10.1 -6.15 L10.25 -2.95 8.75 -4.25 8.75 -4.8 8.75 -4.9 8.75 -4.85 9.8 -6.55 M-14.2 -16.8 L-7.0 -16.4 -6.6 -15.6 -7.4 -12.85 -7.4 -15.3 -14.2 -15.75 -14.2 -16.8" fill="#ffffff" fill-rule="evenodd" stroke="none"/>
    <path d="M4.6 -20.5 L1.9 -30.35 7.25 -26.75 5.55 -20.8 5.15 -19.4 4.6 -20.5" fill="url(#gradient0)" fill-rule="evenodd" stroke="none"/>
    <path d="M1.05 -34.5 L1.7 -34.25 9.45 -28.1 9.75 -27.6 9.75 -27.0 8.3 -22.65 11.1 -24.95 11.75 -25.2 Q12.15 -25.2 12.4 -24.9 L13.4 -24.0 13.65 -23.9 14.1 -23.5 14.3 -23.1 19.7 -17.9 20.0 -17.45 19.95 -16.9 19.7 -16.45 10.05 -7.65 10.0 -7.55 14.5 -6.9 15.05 -6.6 15.35 -6.05 15.25 -5.45 13.95 -2.7 13.8 -2.45 10.95 0.55 10.35 0.9 8.75 1.05 8.65 1.05 -10.45 1.05 -11.05 0.85 -18.9 -5.55 -19.25 -6.1 -19.2 -6.7 -18.0 -9.8 -17.95 -11.3 -17.9 -11.45 -17.15 -14.65 -17.1 -14.8 -16.7 -15.75 -16.3 -16.25 -15.65 -16.4 -15.45 -16.35 -15.15 -17.2 -14.75 -17.65 -14.15 -17.8 -7.55 -17.45 -8.55 -24.95 -8.5 -25.4 -8.25 -25.75 -2.5 -31.9 -2.4 -32.0 0.45 -34.25 Q0.7 -34.5 1.05 -34.5 M6.25 -19.7 L8.8 -27.35 1.05 -33.5 -1.75 -31.2 -7.55 -25.1 -6.5 -17.4 -5.6 -15.8 Q-4.85 -14.05 -4.7 -12.75 -3.75 -9.55 -3.55 -7.95 L-3.6 -7.9 -5.25 -12.5 -6.6 -15.6 -7.0 -16.4 -14.2 -16.8 -15.05 -14.65 -15.8 -15.4 -16.15 -14.45 -15.6 -14.85 -14.8 -14.35 -14.6 -14.15 -12.45 -7.7 -13.5 -7.5 -13.55 -7.5 Q-14.85 -7.5 -15.9 -8.6 -16.55 -9.3 -16.8 -10.2 L-16.95 -11.25 -17.0 -9.65 -18.3 -6.35 -10.45 0.05 -8.0 0.05 -1.0 0.05 -0.85 0.05 -0.4 0.05 0.35 0.05 4.3 0.05 4.8 0.05 7.5 -1.2 8.15 -1.5 7.2 -0.9 5.6 0.05 5.75 0.05 8.65 0.05 10.25 -0.1 13.05 -3.15 14.35 -5.9 9.8 -6.55 9.25 -6.6 Q7.75 -5.25 3.65 -3.0 L7.05 -6.25 7.75 -6.85 7.65 -6.85 13.05 -11.75 19.0 -17.2 13.5 -22.45 13.2 -23.0 13.15 -22.8 11.7 -24.2 7.3 -20.55 6.25 -17.9 5.85 -16.95 4.25 -13.3 6.25 -15.85 -0.8 -3.55 0.05 -6.25 3.75 -12.7 5.65 -18.1 6.3 -19.75 6.25 -19.7 M-2.35 -29.1 Q-2.2 -29.25 -2.0 -29.35 L-0.25 -28.25 0.45 -20.3 -1.15 -24.35 -4.5 -27.2 -2.35 -29.1 M0.3 -28.75 L2.75 -19.55 2.55 -19.15 0.3 -28.75 M11.25 -19.8 L11.15 -19.35 10.0 -16.1 11.3 -22.45 11.25 -19.8 M8.05 -17.1 L8.05 -19.6 9.85 -21.6 8.1 -16.95 8.05 -17.1 M-1.0 -6.1 L-1.55 -4.7 -5.65 -16.5 -5.95 -21.85 -2.75 -19.6 -1.0 -6.1 M-13.1 -6.35 L-11.4 -6.65 -8.3 -0.05 -13.1 -6.35" fill="#2c2c83" fill-rule="evenodd" stroke="none"/>
    <path d="M-2.0 -29.35 L-0.75 -30.35 0.3 -28.75 2.55 -19.15 -6.65 -23.9 -4.5 -27.2 -1.15 -24.35 0.45 -20.3 -0.25 -28.25 -2.0 -29.35 M0.05 -6.25 L-0.8 -3.55 6.25 -15.85 4.25 -13.3 5.85 -16.95 6.25 -17.9 7.85 -15.45 1.45 -3.1 -0.6 -0.7 -0.9 -3.75 -0.9 -4.35 0.05 -6.25 M5.75 0.05 L5.6 0.05 7.2 -0.9 5.75 0.05 M7.5 -1.2 L4.8 0.05 4.3 0.05 6.9 -1.85 7.85 -1.6 7.5 -1.2 M-17.0 -9.65 L-16.95 -11.25 -16.8 -10.2 Q-16.55 -9.3 -15.9 -8.6 -14.85 -7.5 -13.55 -7.5 L-17.1 -7.45 -17.0 -9.65 M-12.45 -7.7 L-14.6 -14.15 -13.1 -12.0 -11.4 -7.95 -12.45 -7.7 M-14.8 -14.35 L-15.6 -14.85 -16.15 -14.45 -15.8 -15.4 -15.05 -14.65 -14.8 -14.35 M11.45 -23.0 L11.25 -19.8 11.3 -22.45 10.0 -16.1 9.5 -15.1 8.3 -16.55 8.15 -16.8 8.1 -16.95 9.85 -21.6 8.05 -19.6 8.05 -17.1 7.3 -20.05 11.45 -23.0 M-0.3 -7.6 L-1.0 -6.1 -2.75 -19.6 -0.8 -18.4 -0.3 -7.6 M-1.55 -4.7 L-1.8 -3.8 -5.65 -16.5 -1.55 -4.7 M-7.35 0.0 L-7.85 0.0 -8.3 -0.05 -16.05 -5.65 -13.1 -6.35 -8.3 -0.05 -11.4 -6.65 -7.35 0.0" fill="#00ccff" fill-rule="evenodd" stroke="none"/>
    <path d="M-1.75 -31.2 L-2.35 -29.1 -4.5 -27.2 -6.65 -23.9 2.55 -19.15 2.75 -19.55 4.6 -20.5 5.15 -19.4 5.55 -20.8 6.25 -19.7 6.3 -19.75 5.65 -18.1 5.15 -17.8 3.4 -16.95 -5.0 -22.5 2.95 -16.7 -0.3 -7.6 -0.8 -18.4 -2.75 -19.6 -5.95 -21.85 -5.65 -16.5 -1.8 -3.8 -2.15 -2.9 -5.3 -12.55 Q-4.4 -8.5 -8.0 -7.45 L-7.0 -3.25 -8.75 -7.1 -6.55 -13.05 -9.0 -7.7 -10.05 -9.8 -8.35 -9.25 -7.4 -12.85 -6.6 -15.6 -5.25 -12.5 -3.6 -7.9 -3.55 -7.95 Q-3.75 -9.55 -4.7 -12.75 -4.85 -14.05 -5.6 -15.8 L-6.5 -17.4 -7.55 -25.1 -1.75 -31.2 M6.25 -17.9 L7.3 -20.55 11.7 -24.2 11.45 -23.0 7.3 -20.05 8.05 -17.1 8.1 -16.95 8.15 -16.8 7.0 -18.5 9.15 -13.85 1.0 -1.6 0.25 -0.15 2.8 -0.85 0.35 0.05 -0.4 0.05 1.05 -2.55 -0.85 0.05 -1.0 0.05 -0.95 -4.3 -0.9 -3.75 -0.6 -0.7 1.45 -3.1 7.85 -15.45 6.25 -17.9 M13.05 -3.15 L10.25 -0.1 8.65 0.05 5.75 0.05 7.2 -0.9 8.15 -1.5 7.5 -1.2 7.85 -1.6 6.9 -1.85 3.8 -0.45 5.7 -1.95 8.75 -4.25 10.25 -2.95 10.3 -2.05 Q11.15 -2.15 11.95 -3.2 L13.05 -3.15 M-8.0 0.05 L-10.45 0.05 -18.3 -6.35 -17.0 -9.65 -17.1 -7.45 -13.55 -7.5 -13.5 -7.5 -12.45 -7.7 -11.4 -7.95 -13.1 -12.0 -14.6 -14.15 -14.8 -14.35 -15.05 -14.65 -14.2 -16.8 -14.2 -15.75 -13.3 -13.75 -7.35 0.0 -11.4 -6.65 -13.1 -6.35 -16.05 -5.65 -8.3 -0.05 -7.85 0.0 -8.0 0.05 M11.15 -19.35 L11.55 -16.85 11.2 -14.65 11.9 -14.15 9.7 -13.3 7.65 -10.45 9.65 -14.7 8.3 -16.55 9.5 -15.1 10.0 -16.1 11.15 -19.35" fill="#b5f2ff" fill-rule="evenodd" stroke="none"/>
    <path d="M13.15 -22.8 L13.2 -23.0 13.5 -22.45 16.65 -17.0 11.2 -14.65 11.55 -16.85 13.15 -22.8" fill="url(#gradient1)" fill-rule="evenodd" stroke="none"/>
    <path d="M13.05 -11.75 L7.65 -6.85 7.75 -6.85 7.05 -6.25 3.65 -3.0 Q7.75 -5.25 9.25 -6.6 L9.8 -6.55 8.75 -4.85 8.2 -4.25 8.75 -4.8 8.75 -4.25 5.7 -1.95 2.8 -0.85 0.25 -0.15 1.0 -1.6 7.65 -10.45 9.7 -13.3 11.9 -14.15 14.95 -14.8 13.05 -11.75" fill="url(#gradient2)" fill-rule="evenodd" stroke="none"/>
    <path d="M7.65 -10.45 L1.0 -1.6 9.15 -13.85 7.0 -18.5 8.15 -16.8 8.3 -16.55 9.65 -14.7 7.65 -10.45" fill="#017c8d" fill-rule="evenodd" stroke="none"/>
    <path d="M5.65 -18.1 L3.75 -12.7 0.05 -6.25 -0.9 -4.35 -0.95 -4.3 -1.0 0.05 -8.0 0.05 -7.85 0.0 -7.35 0.0 -13.3 -13.75 -10.05 -9.8 -9.0 -7.7 -6.55 -13.05 -8.75 -7.1 -7.0 -3.25 -5.7 -0.7 -2.15 -2.9 -1.8 -3.8 -1.55 -4.7 -1.0 -6.1 -0.3 -7.6 2.95 -16.7 -5.0 -22.5 3.4 -16.95 5.15 -17.8 5.65 -18.1 M4.3 0.05 L0.35 0.05 2.8 -0.85 5.7 -1.95 3.8 -0.45 6.9 -1.85 4.3 0.05 M-0.4 0.05 L-0.85 0.05 1.05 -2.55 -0.4 0.05 M8.75 -4.8 L8.2 -4.25 8.75 -4.85 8.75 -4.9 8.75 -4.8" fill="#00618a" fill-rule="evenodd" stroke="none"/>
    <path d="M10.25 -2.95 L10.1 -6.15 Q11.65 -5.85 12.25 -4.85 12.6 -4.35 11.95 -3.2 11.15 -2.15 10.3 -2.05 L10.25 -2.95" fill="url(#gradient3)" fill-rule="evenodd" stroke="none"/>
    <path d="M-10.05 -9.8 L-13.3 -13.75 -14.2 -15.75 -7.4 -15.3 -7.4 -12.85 -8.35 -9.25 -10.05 -9.8" fill="url(#gradient4)" fill-rule="evenodd" stroke="none"/>
    <path d="M-2.15 -2.9 L-5.7 -0.7 -7.0 -3.25 -8.0 -7.45 Q-4.4 -8.5 -5.3 -12.55 L-2.15 -2.9" fill="url(#gradient5)" fill-rule="evenodd" stroke="none"/>
    <path d="M-0.9 -4.35 L-0.9 -3.75 -0.95 -4.3 -0.9 -4.35" fill="#333399" fill-opacity="0.22352941" fill-rule="evenodd" stroke="none"/>
  </g>
  <defs>
    <linearGradient gradientTransform="matrix(-0.0031, 0.001, -0.0021, -0.0063, 5.45, -24.4)" gradientUnits="userSpaceOnUse" id="gradient0" spreadMethod="pad" x1="-819.2" x2="819.2">
      <stop offset="0.0" stop-color="#ffffff"/>
      <stop offset="1.0" stop-color="#52d2fc"/>
    </linearGradient>
    <linearGradient gradientTransform="matrix(-0.0026, 0.0023, -0.0034, -0.0039, 13.35, -18.15)" gradientUnits="userSpaceOnUse" id="gradient1" spreadMethod="pad" x1="-819.2" x2="819.2">
      <stop offset="0.0" stop-color="#ffffff"/>
      <stop offset="1.0" stop-color="#52d2fc"/>
    </linearGradient>
    <linearGradient gradientTransform="matrix(-0.008, 0.004, -0.004, -0.008, 7.6, -7.4)" gradientUnits="userSpaceOnUse" id="gradient2" spreadMethod="pad" x1="-819.2" x2="819.2">
      <stop offset="0.0" stop-color="#ffffff"/>
      <stop offset="1.0" stop-color="#52d2fc"/>
    </linearGradient>
    <linearGradient gradientTransform="matrix(-0.0018, 0.0017, -0.0021, -0.0022, 11.15, -3.65)" gradientUnits="userSpaceOnUse" id="gradient3" spreadMethod="pad" x1="-819.2" x2="819.2">
      <stop offset="0.0" stop-color="#ffffff"/>
      <stop offset="1.0" stop-color="#52d2fc"/>
    </linearGradient>
    <linearGradient gradientTransform="matrix(-0.0026, 0.0021, -0.0027, -0.0033, -9.75, -13.5)" gradientUnits="userSpaceOnUse" id="gradient4" spreadMethod="pad" x1="-819.2" x2="819.2">
      <stop offset="0.0" stop-color="#ffffff"/>
      <stop offset="1.0" stop-color="#52d2fc"/>
    </linearGradient>
    <linearGradient gradientTransform="matrix(-0.0037, 0.0014, -0.0031, -0.0078, -5.9, -6.95)" gradientUnits="userSpaceOnUse" id="gradient5" spreadMethod="pad" x1="-819.2" x2="819.2">
      <stop offset="0.0" stop-color="#ffffff"/>
      <stop offset="1.0" stop-color="#52d2fc"/>
    </linearGradient>
  </defs>
</svg>
