<?xml version="1.0" encoding="UTF-8" standalone="no"?>
<svg xmlns:xlink="http://www.w3.org/1999/xlink" height="24.6px" width="19.95px" xmlns="http://www.w3.org/2000/svg">
  <g transform="matrix(1.0, 0.0, 0.0, 1.0, 11.2, 13.15)">
    <path d="M8.75 -4.35 L2.4 -1.45 3.25 -13.15 8.75 -4.35" fill="#ff64ff" fill-rule="evenodd" stroke="none"/>
    <path d="M2.4 -1.45 L8.75 -4.35 6.4 6.35 2.4 -1.45 M-3.0 -7.3 L-1.85 1.15 -11.2 2.55 -10.65 -6.35 -3.0 -7.3" fill="#ffccff" fill-rule="evenodd" stroke="none"/>
    <path d="M3.25 -13.15 L2.4 -1.45 -3.0 -7.3 3.25 -13.15 M-1.85 1.15 L2.4 -1.45 6.4 6.35 -0.4 11.45 -0.5 11.35 -1.85 1.15" fill="#ff99ff" fill-rule="evenodd" stroke="none"/>
    <path d="M-3.0 -7.3 L2.4 -1.45 -1.85 1.15 -3.0 -7.3 -10.65 -6.35 -4.55 -12.15 3.25 -13.15 -3.0 -7.3" fill="#ffffff" fill-rule="evenodd" stroke="none"/>
    <path d="M-11.2 2.55 L-1.85 1.15 -0.5 11.35 -5.8 8.45 -11.2 2.55" fill="#ce00ce" fill-rule="evenodd" stroke="none"/>
    <path d="M-0.5 11.35 L-0.4 11.45" fill="none" stroke="#000404" stroke-linecap="round" stroke-linejoin="round" stroke-width="0.05"/>
    <path d="M-3.75 5.2 L-3.85 4.6 Q-4.15 2.0 -1.8 0.15 L0.0 0.85 -0.1 2.2 Q-0.4 4.75 -2.75 5.75 L-3.75 5.2" fill="#ffffff" fill-rule="evenodd" stroke="none"/>
    <path d="M2.4 3.35 L2.0 3.0 1.05 3.9 1.0 5.15 1.5 5.45 2.35 3.65 1.9 4.95 Q1.05 6.6 -0.7 6.85 -3.95 6.9 -4.35 3.45 L-4.3 1.85 Q-2.5 -0.95 0.45 0.55 2.5 1.55 2.4 3.35 M-3.75 5.2 L-2.75 5.75 Q-0.4 4.75 -0.1 2.2 L0.0 0.85 -1.8 0.15 Q-4.15 2.0 -3.85 4.6 L-3.75 5.2" fill="#66ccff" fill-rule="evenodd" stroke="none"/>
    <path d="M2.4 3.35 L2.45 3.4 2.35 3.65 1.5 5.45 1.0 5.15 1.05 3.9 2.0 3.0 2.4 3.35" fill="#66ffff" fill-rule="evenodd" stroke="none"/>
  </g>
</svg>
