<?xml version="1.0" encoding="UTF-8" standalone="no"?>
<svg xmlns:xlink="http://www.w3.org/1999/xlink" height="22.15px" width="22.15px" xmlns="http://www.w3.org/2000/svg">
  <g transform="matrix(1.0, 0.0, 0.0, 1.0, 11.05, 11.1)">
    <use height="22.15" transform="matrix(1.0, 0.0, 0.0, 1.0, -11.05, -11.1)" width="22.15" xlink:href="#sprite0"/>
    <use height="18.65" transform="matrix(1.0, 0.0, 0.0, 1.0, -8.4, -9.95)" width="16.65" xlink:href="#shape1"/>
  </g>
  <defs>
    <g id="sprite0" transform="matrix(1.0, 0.0, 0.0, 1.0, 11.05, 11.1)">
      <use height="22.15" transform="matrix(1.0, 0.0, 0.0, 1.0, -11.05, -11.1)" width="22.15" xlink:href="#shape0"/>
    </g>
    <g id="shape0" transform="matrix(1.0, 0.0, 0.0, 1.0, 11.05, 11.1)">
      <path d="M11.1 0.0 Q11.05 4.55 7.85 7.8 L7.8 7.8 Q4.6 11.05 0.0 11.05 -4.6 11.05 -7.85 7.8 -11.05 4.55 -11.05 0.0 -11.1 -4.6 -7.85 -7.85 L-7.85 -7.9 Q-4.6 -11.1 0.0 -11.1 4.6 -11.1 7.8 -7.85 11.05 -4.6 11.1 0.0" fill="#ffab86" fill-rule="evenodd" stroke="none"/>
      <path d="M7.15 -7.1 Q10.1 -4.15 10.15 0.05 10.1 4.2 7.15 7.15 4.25 10.1 0.05 10.1 -4.15 10.1 -7.1 7.15 -10.0 4.2 -10.0 0.05 -10.0 -4.15 -7.1 -7.1 -4.15 -10.05 0.05 -10.05 4.25 -10.05 7.15 -7.1" fill="url(#gradient0)" fill-rule="evenodd" stroke="none"/>
      <path d="M0.65 -5.7 L0.8 -6.5 Q0.55 -9.0 -2.15 -9.0 -4.05 -8.9 -4.75 -7.1 L-4.75 -6.7 Q-4.45 -4.65 -2.25 -4.25 -0.25 -4.0 0.65 -5.7 -0.25 -4.0 -2.25 -4.25 -4.45 -4.65 -4.75 -6.7 L-4.75 -7.1 Q-4.05 -8.9 -2.15 -9.0 0.55 -9.0 0.8 -6.5 L0.65 -5.7 M2.05 -9.8 Q2.55 -8.2 2.5 -6.6 2.45 -4.2 1.75 -1.8 L1.1 0.1 Q0.35 2.1 -1.1 3.6 -2.8 5.1 -5.15 5.6 -7.15 5.6 -9.15 4.3 -10.05 2.35 -10.0 0.1 -10.05 -4.05 -7.1 -7.05 -4.1 -10.0 0.05 -9.95 L2.05 -9.8 M-5.8 -5.0 L-6.8 -4.75 Q-7.75 -4.5 -7.9 -3.55 -8.1 -1.85 -6.25 -1.75 -5.2 -1.7 -4.75 -2.55 -3.8 -4.5 -5.8 -5.0 -3.8 -4.5 -4.75 -2.55 -5.2 -1.7 -6.25 -1.75 -8.1 -1.85 -7.9 -3.55 -7.75 -4.5 -6.8 -4.75 L-5.8 -5.0" fill="url(#gradient1)" fill-rule="evenodd" stroke="none"/>
      <path d="M5.45 4.0 Q7.4 3.0 9.65 3.0 8.95 5.3 7.1 7.15 4.35 9.95 0.55 10.15 L2.4 6.85 Q3.5 5.0 5.45 4.0" fill="url(#gradient2)" fill-rule="evenodd" stroke="none"/>
    </g>
    <radialGradient cx="0" cy="0" gradientTransform="matrix(0.0124, 0.0, 0.0, 0.0124, 0.05, 0.05)" gradientUnits="userSpaceOnUse" id="gradient0" r="819.2" spreadMethod="pad">
      <stop offset="0.17647058823529413" stop-color="#ffab86"/>
      <stop offset="0.8196078431372549" stop-color="#c32100"/>
    </radialGradient>
    <radialGradient cx="0" cy="0" gradientTransform="matrix(0.0119, 0.0, 0.0, 0.0119, -3.7, -2.15)" gradientUnits="userSpaceOnUse" id="gradient1" r="819.2" spreadMethod="pad">
      <stop offset="0.17647058823529413" stop-color="#ffab86"/>
      <stop offset="0.8196078431372549" stop-color="#c32100"/>
    </radialGradient>
    <radialGradient cx="0" cy="0" gradientTransform="matrix(0.0072, 0.0, 0.0, 0.0072, 5.1, 6.55)" gradientUnits="userSpaceOnUse" id="gradient2" r="819.2" spreadMethod="pad">
      <stop offset="0.17647058823529413" stop-color="#ffab86"/>
      <stop offset="0.8196078431372549" stop-color="#c32100"/>
    </radialGradient>
    <g id="shape1" transform="matrix(1.0, 0.0, 0.0, 1.0, 8.4, 9.95)">
      <path d="M0.6 -5.45 L0.6 2.2 5.15 2.2 Q5.55 2.2 5.85 2.5 L6.15 3.2 6.15 6.0 5.85 6.7 5.15 7.0 -3.95 7.0 -4.65 6.7 -4.95 6.0 -4.95 -5.45 -4.65 -6.15 -3.95 -6.45 -0.4 -6.45 0.3 -6.15 0.6 -5.45" fill="#000000" fill-rule="evenodd" stroke="none"/>
      <path d="M-0.4 -5.45 L-0.4 3.2 5.15 3.2 5.15 6.0 -3.95 6.0 -3.95 -5.45 -0.4 -5.45" fill="#ffffff" fill-rule="evenodd" stroke="none"/>
      <path d="M5.35 -5.45 L4.0 -6.85 4.5 -6.9 Q6.5 -5.3 7.55 -3.15 L8.15 -1.1 8.25 0.65 8.1 1.35 7.7 1.6 7.1 -2.05 Q6.6 -3.85 5.35 -5.45 M0.2 -6.75 Q-0.65 -5.3 -2.2 -5.2 -4.15 -5.45 -4.85 -7.1 L-5.2 -8.15 Q-4.35 -9.9 -2.35 -9.95 -0.85 -9.95 -0.05 -8.5 L0.25 -7.2 0.2 -6.75 M-6.25 -6.05 Q-5.1 -5.7 -4.8 -4.8 -4.95 -3.45 -6.35 -2.75 -7.25 -2.9 -7.9 -3.45 -8.75 -4.15 -8.1 -4.95 -7.4 -5.7 -6.25 -6.05 M-3.85 7.55 L-1.25 8.5 -0.2 8.65 -3.3 8.7 -3.85 7.55 M6.75 5.85 L6.85 6.2 6.8 6.65 5.45 7.6 4.85 7.3 4.6 6.75 4.9 5.9 6.1 5.45 6.75 5.85" fill="#ffffff" fill-rule="evenodd" stroke="none"/>
    </g>
  </defs>
</svg>
