[
    {
        "itemID": 117,
        "name": "Clé de Gordon",
        "level": {
            "gameID": 31,
            "levelName": "3.0"
        },
        "conditions": "Attendre suffisament longtemps pour que le conseil des carotteux vous la donne.",
        "effect": "Permet d'ouvrir la serrure du [niveau 3.0](/games/31/levels/3.0) et ainsi accéder au [niveau 3.1](/games/31/levels/3.1)"
    },
    {
        "itemID": 1190,
        "name": "Passe-partout en bois",
        "level": {
            "gameID": 31,
            "levelName": "46.7"
        },
        "conditions": "Avoir une lampe noire ou après avoir tué tous les ennemis.",
        "effect": "Permet d'accéder à la [dimension 15](/games/31/levels/15.0)."
    },
    {
        "itemID": 1238,
        "name": "Pass-Pyramide",
        "level": {
            "gameID": 31,
            "levelName": "54.12.1D.9.3.16"
        },
        "effect": "Permet d'accéder à la [crypte framboisée](/games/31/levels/54.12.1G.0)."
    },
    {
        "itemID": 1191,
        "name": "Clé de Rigor-Dangerous",
        "level": {
            "gameID": 31,
            "levelName": "55.0"
        },
        "conditions": "Après avoir appuyé sur le bouton rouge.",
        "effect": "Permet d'accéder à la [dimension 51](/games/31/levels/51.0)."
    },
    {
        "itemID": 1194,
        "name": "Furtok Glaciale",
        "level": {
            "gameID": 31,
            "levelName": "15.12"
        },
        "effect": "Permet d'accéder à la [dimension 64](/games/31/levels/64.0)."
    },
    {
        "itemID": 1197,
        "name": "Clé des Mondes Ardus",
        "level": {
            "gameID": 31,
            "levelName": "50"
        },
        "conditions": "Être en Cauchemar",
        "effect": "Permet d'accéder à la [dimension 82](/games/31/levels/82.0)."
    },
    {
        "itemID": 1198,
        "name": "Clé piquante",
        "level": {
            "gameID": 31,
            "levelName": "23.0"
        },
        "conditions": "Être en mode Miroir",
        "effect": "Permet d'accéder à la [dimension 62](/games/31/levels/62.0)."
    },
    {
        "itemID": 1199,
        "name": "Passe-Partout de Tuberculoz",
        "level": {
            "gameID": 31,
            "levelName": "101"
        },
        "conditions": "Après avoir battu Tuberculoz",
        "effect": "Permet d'accéder à la [dimension 0](/games/31/levels/0.0)."
    },
    {
        "itemID": 1200,
        "name": "Clé des Cauchemars",
        "level": {
            "gameID": 31,
            "levelName": "103"
        },
        "conditions": "Être en mode Cauchemar",
        "effect": "Permet d'accéder à la [dimension 2](/games/31/levels/2.0)."
    },
    {
        "itemID": 1192,
        "name": "Méluzzine",
        "conditions": "Disponible en [coeff 5](/objects/coeffs) après avoir fini la quête [La première clé !](/objects/quests)",
        "effect": "Permet de faire apparaître les cristaux violets au [niveau 78](/games/31/levels/78)."
    },
    {
        "itemID": 1195,
        "name": "Vieille Clé Rouillée",
        "conditions": "Disponible en [coeff 4](/objects/coeffs) après avoir fini la quête [La première clé !](/objects/quests)",
        "effect": "Permet d'accéder à la [dimension 25](/lands/31/levels/25.0)."
    },
    {
        "itemID": 1193,
        "name": "Clé du Bourru",
        "conditions": "Disponible en [coeff 1](/objects/coeffs) après avoir fini la quête [L'eau ferrigineuneuse](/objects/quests)",
        "effect": "Permet d'accéder à la [dimension 33](/lands/31/levels/33.0)."
    },
    {
        "itemID": 1196,
        "name": "Autorisation du Bois-Joli",
        "conditions": "Disponible en [coeff 1](/objects/coeffs) après avoir fini la quête [Paperasse administrative](/objects/quests)",
        "effect": "Permet d'accéder à la [dimension 15.11](/lands/31/levels/15.11.0)."
    },
    {
        "name": "Clé d'inversion",
        "conditions": "Clé non implémentée dans le jeu",
        "effect": "Permet d'accéder à l'hypothétique [dimension 86.1](/lands/31/levels/86.1)."
    },
    {
        "name": "Clé des apprentis",
        "conditions": "Clé non implémentée en jeu, qui était autrefois mentionnée au dernier niveau de l'Apprentissage.",
        "effect": "Inconnu"
    }
]